["adipocere",
"advanced decomposition",
"amputation",
"ant",
"ants",
"arm",
"autopsy bag",
"autopsy cut",
"axilla",
"bandage",
"bee",
"beetle",
"beginning bloat",
"black brown discoloration",
"black discoloration",
"black gray discoloration",
"black plastic",
"black tarp",
"bloat",
"body",
"bone",
"bone exposure",
"brick",
"brown discoloration",
"bruising",
"bulla",
"bullae",
"cage",
"clothing",
"darkened skin",
"dentures",
"dermis",
"desiccated skin",
"desiccation",
"discoloration",
"dry skin",
"duct tape",
"ear",
"eggs",
"exposed bone",
"eye",
"face",
"flies",
"fly",
"foam",
"foot",
"fresh skin",
"genitals",
"glossy skin",
"gray discoloration",
"green gut",
"groin",
"hair",
"head",
"hernia",
"insect",
"larvae",
"larval mass",
"leaf",
"left foot",
"left hand",
"leg",
"legs",
"lividity",
"livor mortis",
"maggot eggs",
"maggot",
"maggots",
"marbling",
"medical device",
"mesh bag",
"moist decomposition",
"moist skin",
"mold",
"mottling",
"mouse",
"mouth",
"mummification",
"mummified",
"neck",
"nose",
"open sore",
"organ bag",
"post bloat",
"prone",
"prosthetic device",
"purge",
"raccoon print",
"recessed eye",
"recognizable face",
"remove",
"remove?",
"right foot",
"right hand",
"saturated soil",
"scale",
"scar",
"scatter",
"scavenging",
"shoe cover",
"skeletonization",
"skin slippage",
"skull",
"snail",
"soft tissue",
"soil stain",
"stink bug",
"stomata",
"supine",
"surgical implant",
"surgical item",
"tag",
"tattoo",
"torso",
"trauma",
"trunk",
"waterlogged skin",
"whole body",
"worm",
"yellow jacket",
"zip tie"]
